…
```r
# Use this R-Chunk to clean & wrangle your data!
rating_10 <- ratings %>%
  group_by(series) %>%
  filter(10 %in% episode) %>%
  mutate(viewers_mean = mean(viewers_7day)) %>%
  ungroup() 
  
(rating_10)
```

```
## # A tibble: 80 x 10
##    series episode uk_airdate viewers_7day viewers_28day network_rank
##    <fct>  <fct>   <date>            <dbl>         <dbl>        <int>
##  1 3      1       2012-08-14         3.85             1           NA
##  2 3      2       2012-08-21         4.6              1           NA
##  3 3      3       2012-08-28         4.53             1           NA
##  4 3      4       2012-09-04         4.71             1           NA
##  5 3      5       2012-09-11         4.61             1           NA
##  6 3      6       2012-09-18         4.82             1           NA
##  7 3      7       2012-09-25         5.1              1           NA
##  8 3      8       2012-10-02         5.35             1           NA
##  9 3      9       2012-10-09         5.7              1           NA
## 10 3      10      2012-10-16         6.74             1           NA
## # ... with 70 more rows, and 4 more variables: channels_rank <int>,
## #   bbc_iplayer_requests <dbl>, episode_count <dbl>, viewers_mean <dbl>
```
…
